{
	"starmoonResponse": "What do you want to ask me?",
	"questions": [
		{
			"id": 1,
			"question": "Who is Starmoon?",
			"response": {
				"starmoonResponse": "Brazilian artist that is a huge fan of non biney girlboys. I make the gay music you might or might not have heard before, if you haven't, check it out!",
				"questions": [
					{
						"id": 1,
						"question": "Where can I find your gay music, anywho?",
						"response": {
							"starmoonResponse": "You can find my gay music everywhere :3. Just google Starmoon, I'm in all the major streaming platforms. Also if you want some physical shit, CDs, DVDs and such, those come to time to time to this very website hehe",
							"questions": [
								{
									"id": 1,
									"question": "I have some other questions about you...",
									"response": "gotoPrevious"
								}
							]
						}
					},
					{
						"id": 2,
						"question": "How is it over there in Brazil? ...And no, don't ask. I'm not going to Brazil.",
						"response": {
							"starmoonResponse": "Brasil is fucking goated. You should come, we have the best food, the baddest bitches, and the most wacky weather",
							"questions": [
								{
									"id": 1,
									"question": "I'M NOT GOING TO BRAZIL... Listen, I have some other questions about you",
									"response": "gotoPrevious"
								}
							]
						}
					},
					{
						"id": 3,
						"question": "I have some other questions...",
						"response": "gotoStart"
					}
				]
			}
		},
		{
			"id": 2,
			"question": "How would you describe your music?",
			"response": {
				"starmoonResponse": "Faggy internet-inspired edm for the common man, and woman, and non bineys, and animals. ...Idk man I just click stuff on my puter, and sometimes music comes out. You should try it sometimes, it's good to air out feelings. Most of my better songs came out at my highest/lowest points mood wise hehe",
				"questions": [
					{
						"id": 1,
						"question": "Tell me about some of your mood-inspired tracks.",
						"response": {
							"starmoonResponse": "The mood ones have dwindled since the beginning of my music career because I'm not as sad anymore lmao. You can prob figure out which ones are me venting just by the titles lmao. If I was feeling some type of way I would make a song with that vibe, like, \"was it something I said\" was made right after an ex of mine didn't wanna come to my house",
							"questions": [
								{
									"id": 1,
									"question": "I have some other questions about your music...",
									"response": "gotoPrevious"
								}
							]
						}
					},
					{
						"id": 2,
						"question": "Click on your puter??? What program do you use for that? Are you an Ableton fangirl, or an FL enjoyer?",
						"response": {
							"starmoonResponse": "I use FL lmao. Ableton looks like an excel spreadsheet lolol. Fuck that noise (no offense to those who use it tho)",
							"questions": [
								{
									"id": 1,
									"question": "I have some other questions about your music...",
									"response": "gotoPrevious"
								}
							]
						}
					},
					{
						"id": 3,
						"question": "I have some other questions...",
						"response": "gotoStart"
					}
				]
			}
		},
		{
			"id": 3,
			"question": "What is your favorite TV show and why is it the Simpsons? (excluding the newer seasons)",
			"response": {
				"starmoonResponse": "Nah, I watched very little of The Simpsons. I like The Office more, Jim is hot. Also, fun fact about me, I used to be a chubby kid in high school. One day out of nowhere I decided to watch The Office while riding an exercise bike. I ended up losing a considerable amount of weight doing that lmao",
				"questions": [
					{
						"id": 1,
						"question": "But... Don't you know Parks and Rec is just The Office but better? Why do you watch The Office?? Is your brain okay?????",
						"response": {
							"starmoonResponse": "I never watched Parks and Rec. I should fr. I just really like the characters on the office, it's a show with heart. (up until season 7 that is)",
							"questions": [
								{
									"id": 1,
									"question": "Okay, weirdo. I have some other questions about the Simpsons...",
									"response": "gotoPrevious"
								}
							]
						}
					},
					{
						"id": 2,
						"question": "Well, what other shows do you like?",
						"response": {
							"starmoonResponse": "I really like Community as well, way more than the office actually lmao. It's one of the most creative sitcoms ever, and so funny too. 6 seasons and a movie!",
							"questions": [
								{
									"id": 1,
									"question": "I have some other questions about the Simpsons...",
									"response": "gotoPrevious"
								}
							]
						}
					},
					{
						"id": 3,
						"question": "I have some other questions...",
						"response": "gotoStart"
					}
				]
			}
		},
		{
			"id": 4,
			"question": "What the fuck is a starmoon?",
			"response": {
				"starmoonResponse": "It's a sailor moon type beat (never even watched a single episode lmao, just really like the aesthetic of moons and stars). My name actually originates from me loving the theater group \"StarKid\" and me wanting a cool name like \"The Phantom Thieves\" from Persona 5, which gave me the name \"Starthief\". It was already taken tho, so I just decided to go with Starmoon xP. That turned out to not be that much better tho as I quickly figured out \"Starmoon\" was a kpop thing (no, the website \"Starmoon stories\" full of kpop fanfics isn't mine)",
				"questions": [
					{
						"id": 1,
						"question": "I've never heard of StarKid. Tell me about them.",
						"response": {
							"starmoonResponse": "Starkid is goated as hell, they used to make parody musicals and post them on youtube for themselves to watch later and out of nowhere they blew up. Nowadays they do, like, horror comedy musicals and they are AWESOME. Check it out sometime",
							"questions": [
								{
									"id": 1,
									"question": "Anywho, more about \"Starmoon\"...",
									"response": "gotoPrevious"
								}
							]
						}
					},
					{
						"id": 2,
						"question": "Persona 5? Are you a fan of the Persona series?",
						"response": {
							"starmoonResponse": "I love Persona. I beat 4 then 5, then 3 then 5 royal then 4 golden, and know I'm looking forward to playing 3 reload",
							"questions": [
								{
									"id": 1,
									"question": "Anywho, more about \"Starmoon\"...",
									"response": "gotoPrevious"
								}
							]
						}
					},
					{
						"id": 3,
						"question": "Starthief would have been an awful name. Imagine you were named Starthief right now.",
						"response": {
							"starmoonResponse": "It would have lmao. Fun fact, you can find 2 future funk songs I made with the name starthief in spotify hehe",
							"questions": [
								{
									"id": 1,
									"question": "Anywho, more about \"Starmoon\"...",
									"response": "gotoPrevious"
								}
							]
						}
					},
					{
						"id": 4,
						"question": "I have some other questions...",
						"response": "gotoStart"
					}
				]
			}
		},
		{
			"id": 5,
			"question": "Top 5 favorite albums?",
			"response": {
				"starmoonResponse": "1. Flamboyant, 2. Igor, 3. Pinkerton 4. Clear Hearts Grey Flowers (Jack Off Jill is hella underrated), 5. Nature Tapes. This Changes all the time tho, a considerable amount of video game OSTs could creep their way up from my top 10 to the top 5 lol",
				"questions": [
					{
						"id": 1,
						"question": "Video game OSTs? You like video games?",
						"response": {
							"starmoonResponse": "I looooooove video game OSTs. 90% of the mp3s on my phone are the persona soundtracks lmao",
							"questions": [
								{
									"id": 1,
									"question": "I have some other questions...",
									"response": "gotoStart"
								}
							]
						}
					}
				]
			}
		}
	]
}
